sexta questão/simulation/qsim/COUNTER.msim.vcd
$comment
	File created using the following command:
		vcd file COUNTER.msim.vcd -direction
$end
$date
	Fri Jul 09 13:03:03 2021
$end
$version
	ModelSim Version 10.1d
$end
$timescale
	1ps
$end
$scope module COUNTER_vlg_vec_tst $end
$var reg 1 ! CLK $end
$var reg 7 " D [6:0] $end
$var reg 7 # treg_Q [6:0] $end
$var reg 7 $ treg_QB [6:0] $end
$var reg 7 % R [6:0] $end
$var reg 7 & S [6:0] $end
$var wire 1 ' Q [6] $end
$var wire 1 ( Q [5] $end
$var wire 1 ) Q [4] $end
$var wire 1 * Q [3] $end
$var wire 1 + Q [2] $end
$var wire 1 , Q [1] $end
$var wire 1 - Q [0] $end
$var wire 1 . Q_D [2] $end
$var wire 1 / Q_D [1] $end
$var wire 1 0 Q_D [0] $end
$var wire 1 1 Q_U [3] $end
$var wire 1 2 Q_U [2] $end
$var wire 1 3 Q_U [1] $end
$var wire 1 4 Q_U [0] $end
$var wire 1 5 QB [6] $end
$var wire 1 6 QB [5] $end
$var wire 1 7 QB [4] $end
$var wire 1 8 QB [3] $end
$var wire 1 9 QB [2] $end
$var wire 1 : QB [1] $end
$var wire 1 ; QB [0] $end
$var wire 1 < sampler $end
$scope module i1 $end
$var wire 1 = gnd $end
$var wire 1 > vcc $end
$var wire 1 ? unknown $end
$var tri1 1 @ devclrn $end
$var tri1 1 A devpor $end
$var tri1 1 B devoe $end
$var wire 1 C CLK~combout $end
$var wire 1 D Q[1]~0 $end
$var wire 1 E Q[2]~1 $end
$var wire 1 F Q[3]~2 $end
$var wire 1 G Q[4]~3 $end
$var wire 1 H Q[5]~4 $end
$var wire 1 I Q[6]~5 $end
$var wire 1 J FFD_0|Q_TEMP~1_combout $end
$var wire 1 K FFD_0|Q_TEMP~3_combout $end
$var wire 1 L FFD_0|Q_TEMP~0_combout $end
$var wire 1 M FFD_0|Q_TEMP~_emulated_regout $end
$var wire 1 N FFD_0|Q_TEMP~2_combout $end
$var wire 1 O FFD_2|Q_TEMP~1_combout $end
$var wire 1 P FFD_2|Q_TEMP~2_combout $end
$var wire 1 Q FFD_4|Q_TEMP~1_combout $end
$var wire 1 R FFD_4|Q_TEMP~2_combout $end
$var wire 1 S S~combout [6] $end
$var wire 1 T S~combout [5] $end
$var wire 1 U S~combout [4] $end
$var wire 1 V S~combout [3] $end
$var wire 1 W S~combout [2] $end
$var wire 1 X S~combout [1] $end
$var wire 1 Y S~combout [0] $end
$var wire 1 Z R_WIRE [4] $end
$var wire 1 [ R_WIRE [3] $end
$var wire 1 \ R_WIRE [2] $end
$var wire 1 ] R_WIRE [1] $end
$var wire 1 ^ R_WIRE [0] $end
$upscope $end
$upscope $end
$enddefinitions $end
#0
$dumpvars
0!
b1111111 "
bz #
bz $
b0 %
b1111111 &
x-
z,
z+
z*
z)
z(
z'
x0
x/
x.
x4
x3
x2
x1
x;
0:
x9
08
x7
06
05
x<
0=
1>
x?
1@
1A
1B
0C
zD
zE
zF
zG
zH
zI
xJ
xK
1L
0M
xN
xO
xP
xQ
xR
1Y
zX
zW
zV
zU
zT
zS
x^
x]
z\
z[
zZ
$end
#50000
1!
1C
0<
#100000
0!
0C
1<
#150000
1!
1C
0<
#200000
0!
0C
1<
#250000
1!
1C
0<
#300000
0!
0C
1<
#350000
1!
1C
0<
#400000
0!
0C
1<
#450000
1!
1C
0<
#500000
0!
0C
1<
#550000
1!
1C
0<
#600000
0!
0C
1<
#650000
1!
1C
0<
#700000
0!
0C
1<
#750000
1!
1C
0<
#800000
0!
0C
1<
#850000
1!
1C
0<
#900000
0!
0C
1<
#950000
1!
1C
0<
